module github.com/ryanma3003/hris

go 1.21.0

require (
	github.com/Knetic/govaluate v3.0.1-0.20171022003610-9aa49832a739+incompatible // indirect
	github.com/bytedance/sonic v1.10.0 // indirect
	github.com/casbin/casbin/v2 v2.77.2 // indirect
	github.com/casbin/gorm-adapter/v3 v3.19.0 // indirect
	github.com/chenzhuoyu/base64x v0.0.0-20230717121745-296ad89f973d // indirect
	github.com/chenzhuoyu/iasm v0.9.0 // indirect
	github.com/dustin/go-humanize v1.0.1 // indirect
	github.com/fatih/color v1.9.0 // indirect
	github.com/fsnotify/fsnotify v1.4.9 // indirect
	github.com/gabriel-vasile/mimetype v1.4.2 // indirect
	github.com/gin-contrib/cors v1.4.0 // indirect
	github.com/gin-contrib/sse v0.1.0 // indirect
	github.com/gin-gonic/gin v1.9.1 // indirect
	github.com/githubnemo/CompileDaemon v1.4.0 // indirect
	github.com/glebarez/go-sqlite v1.20.3 // indirect
	github.com/glebarez/sqlite v1.7.0 // indirect
	github.com/go-playground/locales v0.14.1 // indirect
	github.com/go-playground/universal-translator v0.18.1 // indirect
	github.com/go-playground/validator/v10 v10.15.3 // indirect
	github.com/go-sql-driver/mysql v1.6.0 // indirect
	github.com/goccy/go-json v0.10.2 // indirect
	github.com/golang-jwt/jwt/v5 v5.0.0 // indirect
	github.com/golang-sql/civil v0.0.0-20220223132316-b832511892a9 // indirect
	github.com/golang-sql/sqlexp v0.1.0 // indirect
	github.com/google/uuid v1.3.0 // indirect
	github.com/jackc/pgpassfile v1.0.0 // indirect
	github.com/jackc/pgservicefile v0.0.0-20221227161230-091c0ba34f0a // indirect
	github.com/jackc/pgx/v5 v5.4.3 // indirect
	github.com/jinzhu/inflection v1.0.0 // indirect
	github.com/jinzhu/now v1.1.5 // indirect
	github.com/joho/godotenv v1.5.1 // indirect
	github.com/json-iterator/go v1.1.12 // indirect
	github.com/klauspost/cpuid/v2 v2.2.5 // indirect
	github.com/leodido/go-urn v1.2.4 // indirect
	github.com/lib/pq v1.10.9 // indirect
	github.com/mattn/go-colorable v0.1.4 // indirect
	github.com/mattn/go-isatty v0.0.19 // indirect
	github.com/microsoft/go-mssqldb v0.17.0 // indirect
	github.com/modern-go/concurrent v0.0.0-20180306012644-bacd9c7ef1dd // indirect
	github.com/modern-go/reflect2 v1.0.2 // indirect
	github.com/pelletier/go-toml/v2 v2.1.0 // indirect
	github.com/radovskyb/watcher v1.0.7 // indirect
	github.com/remyoudompheng/bigfft v0.0.0-20230126093431-47fa9a501578 // indirect
	github.com/tidwall/gjson v1.14.4 // indirect
	github.com/tidwall/match v1.1.1 // indirect
	github.com/tidwall/pretty v1.2.0 // indirect
	github.com/twitchyliquid64/golang-asm v0.15.1 // indirect
	github.com/ugorji/go/codec v1.2.11 // indirect
	golang.org/x/arch v0.5.0 // indirect
	golang.org/x/crypto v0.12.0 // indirect
	golang.org/x/net v0.14.0 // indirect
	golang.org/x/sys v0.12.0 // indirect
	golang.org/x/text v0.13.0 // indirect
	google.golang.org/protobuf v1.31.0 // indirect
	gopkg.in/yaml.v3 v3.0.1 // indirect
	gorm.io/driver/mysql v1.4.1 // indirect
	gorm.io/driver/postgres v1.5.2 // indirect
	gorm.io/driver/sqlserver v1.4.1 // indirect
	gorm.io/gorm v1.25.4 // indirect
	gorm.io/plugin/dbresolver v1.3.0 // indirect
	modernc.org/libc v1.22.2 // indirect
	modernc.org/mathutil v1.5.0 // indirect
	modernc.org/memory v1.5.0 // indirect
	modernc.org/sqlite v1.20.3 // indirect
)
